\relax 
\providecommand\hyper@newdestlabel[2]{}
\providecommand\HyperFirstAtBeginDocument{\AtBeginDocument}
\HyperFirstAtBeginDocument{\ifx\hyper@anchor\@undefined
\global\let\oldcontentsline\contentsline
\gdef\contentsline#1#2#3#4{\oldcontentsline{#1}{#2}{#3}}
\global\let\oldnewlabel\newlabel
\gdef\newlabel#1#2{\newlabelxx{#1}#2}
\gdef\newlabelxx#1#2#3#4#5#6{\oldnewlabel{#1}{{#2}{#3}}}
\AtEndDocument{\ifx\hyper@anchor\@undefined
\let\contentsline\oldcontentsline
\let\newlabel\oldnewlabel
\fi}
\fi}
\global\let\hyper@last\relax 
\gdef\HyperFirstAtBeginDocument#1{#1}
\providecommand\HyField@AuxAddToFields[1]{}
\providecommand\HyField@AuxAddToCoFields[2]{}
\citation{bergstra2011algorithms}
\citation{montavon2012neural}
\citation{dewancker2015bayesian}
\citation{dewancker2015bayesian}
\citation{bergstra2012random}
\@writefile{toc}{\contentsline {section}{\numberline {1}Introduction}{1}{section.1}\protected@file@percent }
\newlabel{intro}{{1}{1}{Introduction}{section.1}{}}
\@writefile{toc}{\contentsline {section}{\numberline {2}Related Work}{1}{section.2}\protected@file@percent }
\newlabel{rw}{{2}{1}{Related Work}{section.2}{}}
\@writefile{toc}{\contentsline {subsection}{\numberline {2.1}Grid Search}{1}{subsection.2.1}\protected@file@percent }
\newlabel{gs}{{2.1}{1}{Grid Search}{subsection.2.1}{}}
\citation{dewancker2015bayesian}
\citation{frazier2018tutorial}
\citation{cosmetic}
\citation{DBLP:journals/corr/abs-1204-0047}
\citation{rasmussen2003gaussian}
\citation{rasmussen2003gaussian}
\citation{cosmetic}
\citation{snoek2012practical}
\citation{wiki:gpbayesian}
\citation{wiki:gpbayesian}
\citation{jones1998efficient}
\@writefile{toc}{\contentsline {subsection}{\numberline {2.2}Random Search}{2}{subsection.2.2}\protected@file@percent }
\newlabel{rs}{{2.2}{2}{Random Search}{subsection.2.2}{}}
\@writefile{toc}{\contentsline {subsection}{\numberline {2.3}Bayesian Optimization}{2}{subsection.2.3}\protected@file@percent }
\newlabel{bo}{{2.3}{2}{Bayesian Optimization}{subsection.2.3}{}}
\@writefile{toc}{\contentsline {subsubsection}{\numberline {2.3.1}Gaussian Process}{2}{subsubsection.2.3.1}\protected@file@percent }
\newlabel{GP}{{2.3.1}{2}{Gaussian Process}{subsubsection.2.3.1}{}}
\@writefile{toc}{\contentsline {subsubsection}{\numberline {2.3.2}Acquisition function}{2}{subsubsection.2.3.2}\protected@file@percent }
\newlabel{af}{{2.3.2}{2}{Acquisition function}{subsubsection.2.3.2}{}}
\@writefile{lof}{\contentsline {figure}{\numberline {1}{\ignorespaces BO behaviour. The figure shows the objective function (black line), mean (light purple line), covariance (purple halo) and the samplings (black dots). The top of the figure shows the Expected Improvement function (blue line) and his maximum (yellow dot). The next sampled point will be exactly the maximum of the activation function (red dot). The bottom of the figure shows the new statistical model \cite {wiki:gpbayesian}.\relax }}{2}{figure.caption.1}\protected@file@percent }
\providecommand*\caption@xref[2]{\@setref\relax\@undefined{#1}}
\newlabel{fig: GPr}{{1}{2}{BO behaviour. The figure shows the objective function (black line), mean (light purple line), covariance (purple halo) and the samplings (black dots). The top of the figure shows the Expected Improvement function (blue line) and his maximum (yellow dot). The next sampled point will be exactly the maximum of the activation function (red dot). The bottom of the figure shows the new statistical model \protect \cite {wiki:gpbayesian}.\relax }{figure.caption.1}{}}
\@writefile{lof}{\contentsline {figure}{\numberline {2}{\ignorespaces Example of Expected Improvement with the sampling of the next point (blue dot) generated with Scikit-Optimize library.\relax }}{2}{figure.caption.2}\protected@file@percent }
\newlabel{fig: af}{{2}{2}{Example of Expected Improvement with the sampling of the next point (blue dot) generated with Scikit-Optimize library.\relax }{figure.caption.2}{}}
\newlabel{EI}{{2}{2}{Acquisition function}{equation.2.2}{}}
\@writefile{lof}{\contentsline {figure}{\numberline {3}{\ignorespaces The figure shows the difference between training loss (orange line) and evaluation loss (light blue line). This behaviour means that network incurred in overfitting.\relax }}{3}{figure.caption.3}\protected@file@percent }
\newlabel{fig: losses}{{3}{3}{The figure shows the difference between training loss (orange line) and evaluation loss (light blue line). This behaviour means that network incurred in overfitting.\relax }{figure.caption.3}{}}
\@writefile{lof}{\contentsline {figure}{\numberline {4}{\ignorespaces The structure of the software with the main modules.\relax }}{3}{figure.caption.4}\protected@file@percent }
\newlabel{fig: pipeline}{{4}{3}{The structure of the software with the main modules.\relax }{figure.caption.4}{}}
\@writefile{toc}{\contentsline {section}{\numberline {3}Network Behaviour Analysis}{3}{section.3}\protected@file@percent }
\newlabel{nba}{{3}{3}{Network Behaviour Analysis}{section.3}{}}
\@writefile{toc}{\contentsline {subsection}{\numberline {3.1}Execution Pipeline}{3}{subsection.3.1}\protected@file@percent }
\newlabel{EP}{{3.1}{3}{Execution Pipeline}{subsection.3.1}{}}
\@writefile{loa}{\contentsline {algorithm}{\numberline {1}{\ignorespaces DNN-Tuner\relax }}{3}{algorithm.1}\protected@file@percent }
\newlabel{alg: DNN-Tuner}{{1}{3}{DNN-Tuner\relax }{ALC@unique.17}{}}
\@writefile{toc}{\contentsline {subsection}{\numberline {3.2}Diagnosis Module}{3}{subsection.3.2}\protected@file@percent }
\newlabel{PA}{{3.2}{3}{Diagnosis Module}{subsection.3.2}{}}
\citation{DBLP:journals/corr/IoffeS15}
\citation{DBLP:journals/corr/Laarhoven17b}
\@writefile{lof}{\contentsline {figure}{\numberline {5}{\ignorespaces An example of accuracy (left) and loss (right) in the training (red line) and validation phase (blue line).\relax }}{4}{figure.caption.5}\protected@file@percent }
\newlabel{fig: overfitting}{{5}{4}{An example of accuracy (left) and loss (right) in the training (red line) and validation phase (blue line).\relax }{figure.caption.5}{}}
\@writefile{toc}{\contentsline {subsection}{\numberline {3.3}Tuning Rules}{4}{subsection.3.3}\protected@file@percent }
\newlabel{tr}{{3.3}{4}{Tuning Rules}{subsection.3.3}{}}
\@writefile{loa}{\contentsline {algorithm}{\numberline {2}{\ignorespaces Tuning\relax }}{4}{algorithm.2}\protected@file@percent }
\newlabel{alg: tuning}{{2}{4}{Tuning\relax }{ALC@unique.27}{}}
\@writefile{lot}{\contentsline {table}{\numberline {1}{\ignorespaces Rules applied on each issue.\relax }}{4}{table.caption.6}\protected@file@percent }
\newlabel{table: rules}{{1}{4}{Rules applied on each issue.\relax }{table.caption.6}{}}
\@writefile{lof}{\contentsline {figure}{\numberline {6}{\ignorespaces In this figure we can see the fluctuating trend of the loss. May be due to a too small batch size.\relax }}{4}{figure.caption.7}\protected@file@percent }
\newlabel{fig: floating loss}{{6}{4}{In this figure we can see the fluctuating trend of the loss. May be due to a too small batch size.\relax }{figure.caption.7}{}}
\@writefile{toc}{\contentsline {section}{\numberline {4}Experiments}{4}{section.4}\protected@file@percent }
\newlabel{ex}{{4}{4}{Experiments}{section.4}{}}
\@writefile{lof}{\contentsline {figure}{\numberline {7}{\ignorespaces Accuracy and loss in training (orange line) and validation (blue line) in the first step of DNN-Tuner.\relax }}{5}{figure.caption.8}\protected@file@percent }
\newlabel{fig: acc-1}{{7}{5}{Accuracy and loss in training (orange line) and validation (blue line) in the first step of DNN-Tuner.\relax }{figure.caption.8}{}}
\@writefile{lof}{\contentsline {figure}{\numberline {8}{\ignorespaces Accuracy and loss in training (orange line) and validation (blue line) in the first step of Bayesian Optimization.\relax }}{5}{figure.caption.9}\protected@file@percent }
\newlabel{fig: loss-1}{{8}{5}{Accuracy and loss in training (orange line) and validation (blue line) in the first step of Bayesian Optimization.\relax }{figure.caption.9}{}}
\@writefile{lof}{\contentsline {figure}{\numberline {9}{\ignorespaces Accuracy and loss in training (gray line) and validation (orange line) in the fourth step of DNN-Tuner.\relax }}{5}{figure.caption.10}\protected@file@percent }
\newlabel{fig: acc-4}{{9}{5}{Accuracy and loss in training (gray line) and validation (orange line) in the fourth step of DNN-Tuner.\relax }{figure.caption.10}{}}
\@writefile{lof}{\contentsline {figure}{\numberline {10}{\ignorespaces Accuracy and loss in training (gray line) and validation (orange line) in the fourth step of Bayesian Optimization.\relax }}{5}{figure.caption.11}\protected@file@percent }
\newlabel{fig: loss-4}{{10}{5}{Accuracy and loss in training (gray line) and validation (orange line) in the fourth step of Bayesian Optimization.\relax }{figure.caption.11}{}}
\@writefile{lof}{\contentsline {figure}{\numberline {11}{\ignorespaces Accuracy and loss in training (green line) and validation (gray line) in the seventh step of DNN-Tuner.\relax }}{5}{figure.caption.12}\protected@file@percent }
\newlabel{fig: acc-7}{{11}{5}{Accuracy and loss in training (green line) and validation (gray line) in the seventh step of DNN-Tuner.\relax }{figure.caption.12}{}}
\@writefile{lof}{\contentsline {figure}{\numberline {12}{\ignorespaces Accuracy and loss in training (green line) and validation (gray line) in the seventh step of Bayesian Optimization.\relax }}{6}{figure.caption.13}\protected@file@percent }
\newlabel{fig: loss-7}{{12}{6}{Accuracy and loss in training (green line) and validation (gray line) in the seventh step of Bayesian Optimization.\relax }{figure.caption.13}{}}
\@writefile{toc}{\contentsline {section}{\numberline {5}Conclusion and Future Work}{6}{section.5}\protected@file@percent }
\newlabel{conclusion}{{5}{6}{Conclusion and Future Work}{section.5}{}}
\@writefile{lof}{\contentsline {figure}{\numberline {13}{\ignorespaces Accuracy and loss in training (light blue line) and validation (purple line) of the seventh step of DNN-Tuner.\relax }}{6}{figure.caption.14}\protected@file@percent }
\newlabel{fig: acc-mnist-7}{{13}{6}{Accuracy and loss in training (light blue line) and validation (purple line) of the seventh step of DNN-Tuner.\relax }{figure.caption.14}{}}
\@writefile{lof}{\contentsline {figure}{\numberline {14}{\ignorespaces Accuracy and loss in training (light blue line) and validation (purple line) of the seventh step of Bayesian Optimization.\relax }}{6}{figure.caption.15}\protected@file@percent }
\newlabel{fig: loss-mnist-7}{{14}{6}{Accuracy and loss in training (light blue line) and validation (purple line) of the seventh step of Bayesian Optimization.\relax }{figure.caption.15}{}}
\bibstyle{named}
\bibdata{ijcai20}
\bibcite{bergstra2012random}{\citeauthoryear {Bergstra and Bengio}{2012}}
\bibcite{bergstra2011algorithms}{\citeauthoryear {Bergstra \bgroup \em  et al.\egroup }{2011}}
\bibcite{wiki:gpbayesian}{\citeauthoryear {Commons}{2019}}
\bibcite{dewancker2015bayesian}{\citeauthoryear {Dewancker \bgroup \em  et al.\egroup }{2015}}
\bibcite{frazier2018tutorial}{\citeauthoryear {Frazier}{2018}}
\bibcite{DBLP:journals/corr/IoffeS15}{\citeauthoryear {Ioffe and Szegedy}{2015}}
\bibcite{DBLP:journals/corr/abs-1204-0047}{\citeauthoryear {Jalali \bgroup \em  et al.\egroup }{2012}}
\bibcite{jones1998efficient}{\citeauthoryear {Jones \bgroup \em  et al.\egroup }{1998}}
\bibcite{cosmetic}{\citeauthoryear {Korichi \bgroup \em  et al.\egroup }{2019}}
\bibcite{montavon2012neural}{\citeauthoryear {Montavon \bgroup \em  et al.\egroup }{2012}}
\bibcite{rasmussen2003gaussian}{\citeauthoryear {Rasmussen}{2003}}
\bibcite{snoek2012practical}{\citeauthoryear {Snoek \bgroup \em  et al.\egroup }{2012}}
\bibcite{DBLP:journals/corr/Laarhoven17b}{\citeauthoryear {van Laarhoven}{2017}}
